{
  "project_info": {
    "project_number": "74293011647",
    "project_id": "bsa-rn",
    "storage_bucket": "bsa-rn.appspot.com"
  },
  "client": [
    {
      "client_info": {
        "mobilesdk_app_id": "1:74293011647:android:28c3d81a8221a3d5a1920a",
        "android_client_info": {
          "package_name": "com.bsa_mini_project_rn"
        }
      },
      "oauth_client": [
        {
          "client_id": "74293011647-lj0t67ln4v1jjdh1jn7v69rl6la21740.apps.googleusercontent.com",
          "client_type": 3
        }
      ],
      "api_key": [
        {
          "current_key": "AIzaSyD3LlX726oGa14msO4fy5DdfQuG--wkxs4"
        }
      ],
      "services": {
        "appinvite_service": {
          "other_platform_oauth_client": [
            {
              "client_id": "74293011647-lj0t67ln4v1jjdh1jn7v69rl6la21740.apps.googleusercontent.com",
              "client_type": 3
            }
          ]
        }
      }
    }
  ],
  "configuration_version": "1"
}